2 The Data – Death, Destruction, and Data
…
read_csv(
  "https://raw.githubusercontent.com/milesdwilliams15/foreign-figures/refs/heads/main/_data/mie-1.0.csv"
) -> dt

read_csv() is a function (a thing that has instructions for a particular routine for your computer to run) that reads a CSV file into your computer’s working memory saved at whatever location you tell it to go look. In this case, I gave it the url to the raw CSV file saved on my GitHub. Note that I made sure this url was in quotation marks (““). This is important for locating files in R.

Note, too, that after I closed the parentheses of the read_csv function around the url (and this is also important: make sure you close parentheses), I wrote -> dt. In R-speak, this means I assigned the content of the CSV file to be saved as an object called dt. The arrow is what lets me assign names, and its direction controls what output gets saved with what name. Because the arrow is pointing away from read_csv() to dt, my computer gets the message that I want it to read a CSV file into its working memory and use “dt” as shorthand for anytime I want to tell it to do something else with this data.

This step is crucial. If I don’t save the data as an object, my computer will just read the contents of the CSV file and report them back to me, which isn’t helpful. Below, you can see what happens when I don’t assign the output to an object and just run the function. Underneath the code you can see a snippet of the output. I told my computer to read in the content of the MIE dataset, and then it just read its contents back to me. Because it isn’t saved as an object, I now have no way to refer back to it (except by just re-running the read_csv function every time I need the data, which is just painful).

read_csv(
  "https://raw.githubusercontent.com/milesdwilliams15/foreign-figures/refs/heads/main/_data/mie-1.0.csv"
) 

# A tibble: 28,011 × 18
   micnum eventnum ccode1 ccode2 stmon stday styear endmon endday endyear sidea1
    <dbl>    <dbl>  <dbl>  <dbl> <dbl> <dbl>  <dbl>  <dbl>  <dbl>   <dbl>  <dbl>
 1      2        1      2    200     5    -9   1902      5     -9    1902      1
 2      3        1    300    345    10     7   1913     10      7    1913      1
 3      4        2    339    200     5    15   1946      5     15    1946      1
 4      4        3    200    339    10    22   1946     10     22    1946      0
 5      4        4    200    339    10    22   1946     10     22    1946      0
 6      4        5    200    339    10    22   1946     10     22    1946      0
 7      4        6    339    200    10    22   1946     10     22    1946      1
 8      4        7    200    339    10    23   1946     10     23    1946      0
 9      4        8    200    339    11     1   1946     11      1    1946      0
10      4        9    339    200    11     1   1946     11      1    1946      1
# ℹ 28,001 more rows
# ℹ 7 more variables: action <dbl>, hostlev <dbl>, fatalmin1 <dbl>,
#   fatalmax1 <dbl>, fatalmin2 <dbl>, fatalmax2 <dbl>, version <chr>
…
